<?xml version="1.0" encoding="UTF-8" standalone="no"?><svg xmlns="http://www.w3.org/2000/svg" xmlns:xlink="http://www.w3.org/1999/xlink" contentScriptType="application/ecmascript" contentStyleType="text/css" height="611px" preserveAspectRatio="none" style="width:800px;height:611px;" version="1.1" viewBox="0 0 800 611" width="800px" zoomAndPan="magnify"><defs><filter height="300%" id="fde9q2fc2akir" width="300%" x="-1" y="-1"><feGaussianBlur result="blurOut" stdDeviation="2.0"/><feColorMatrix in="blurOut" result="blurOut2" type="matrix" values="0 0 0 0 0 0 0 0 0 0 0 0 0 0 0 0 0 0 .4 0"/><feOffset dx="4.0" dy="4.0" in="blurOut2" result="blurOut3"/><feBlend in="SourceGraphic" in2="blurOut3" mode="normal"/></filter></defs><g><rect fill="#FEFECE" filter="url(#fde9q2fc2akir)" height="592.6094" rx="12.5" ry="12.5" style="stroke:#A80036;stroke-width:1.5;" width="237.5" x="7" y="7"/><rect fill="#FFFFFF" height="559" rx="12.5" ry="12.5" style="stroke:#FFFFFF;stroke-width:1.0;" width="231.5" x="10" y="37.6094"/><line style="stroke:#A80036;stroke-width:1.5;" x1="7" x2="244.5" y1="34.6094" y2="34.6094"/><text fill="#000000" font-family="sans-serif" font-size="14" lengthAdjust="spacing" textLength="47" x="102.25" y="26.5332">Task[1]</text><g id="Task1.t1"><rect fill="#FEFECE" filter="url(#fde9q2fc2akir)" height="50" rx="12.5" ry="12.5" style="stroke:#A80036;stroke-width:1.5;" width="92" x="78" y="101.6094"/><line style="stroke:#A80036;stroke-width:1.5;" x1="78" x2="170" y1="129.2188" y2="129.2188"/><text fill="#000000" font-family="sans-serif" font-size="14" lengthAdjust="spacing" textLength="72" x="88" y="121.1426">Terminated</text></g><g id="Task1.a1"><rect fill="#FEFECE" filter="url(#fde9q2fc2akir)" height="50" rx="12.5" ry="12.5" style="stroke:#A80036;stroke-width:1.5;" width="58" x="67" y="187.6094"/><line style="stroke:#A80036;stroke-width:1.5;" x1="67" x2="125" y1="215.2188" y2="215.2188"/><text fill="#000000" font-family="sans-serif" font-size="14" lengthAdjust="spacing" textLength="38" x="77" y="207.1426">Active</text></g><g id="Task1.ru1"><rect fill="#ADD8E6" filter="url(#fde9q2fc2akir)" height="50" rx="12.5" ry="12.5" style="stroke:#A80036;stroke-width:1.5;" width="73" x="87.5" y="273.6094"/><line style="stroke:#A80036;stroke-width:1.5;" x1="87.5" x2="160.5" y1="301.2188" y2="301.2188"/><text fill="#000000" font-family="sans-serif" font-size="14" lengthAdjust="spacing" textLength="53" x="97.5" y="293.1426">Running</text></g><g id="Task1.po1"><rect fill="#FEFECE" filter="url(#fde9q2fc2akir)" height="50" rx="12.5" ry="12.5" style="stroke:#A80036;stroke-width:1.5;" width="62" x="24" y="359.6094"/><line style="stroke:#A80036;stroke-width:1.5;" x1="24" x2="86" y1="387.2188" y2="387.2188"/><text fill="#000000" font-family="sans-serif" font-size="14" lengthAdjust="spacing" textLength="42" x="34" y="379.1426">Polling</text></g><g id="Task1.pa1"><rect fill="#FEFECE" filter="url(#fde9q2fc2akir)" height="50" rx="12.5" ry="12.5" style="stroke:#A80036;stroke-width:1.5;" width="68" x="19" y="445.6094"/><line style="stroke:#A80036;stroke-width:1.5;" x1="19" x2="87" y1="473.2188" y2="473.2188"/><text fill="#000000" font-family="sans-serif" font-size="14" lengthAdjust="spacing" textLength="48" x="29" y="465.1426">Parking</text></g><g id="Task1.re1"><rect fill="#FEFECE" filter="url(#fde9q2fc2akir)" height="50" rx="12.5" ry="12.5" style="stroke:#A80036;stroke-width:1.5;" width="61" x="93.5" y="531.6094"/><line style="stroke:#A80036;stroke-width:1.5;" x1="93.5" x2="154.5" y1="559.2188" y2="559.2188"/><text fill="#000000" font-family="sans-serif" font-size="14" lengthAdjust="spacing" textLength="41" x="103.5" y="551.1426">Ready</text></g><g id="Task1.w1"><rect fill="#FEFECE" filter="url(#fde9q2fc2akir)" height="50" rx="12.5" ry="12.5" style="stroke:#A80036;stroke-width:1.5;" width="67" x="161.5" y="445.6094"/><line style="stroke:#A80036;stroke-width:1.5;" x1="161.5" x2="228.5" y1="473.2188" y2="473.2188"/><text fill="#000000" font-family="sans-serif" font-size="14" lengthAdjust="spacing" textLength="47" x="171.5" y="465.1426">Waiting</text></g><ellipse cx="124" cy="55.6094" fill="#000000" filter="url(#fde9q2fc2akir)" rx="10" ry="10" style="stroke:none;stroke-width:1.0;"/><!--MD5=[30eb48134c6397a541091cacd528e8a8]
link *start*Task1 to t1--><path d="M124,65.6294 C124,73.4894 124,85.3294 124,96.4194 " fill="none" id="*start*Task1-to-t1" style="stroke:#A80036;stroke-width:1.0;"/><polygon fill="#A80036" points="124,101.4394,128,92.4394,124,96.4394,120,92.4394,124,101.4394" style="stroke:#A80036;stroke-width:1.0;"/><!--MD5=[06c6cbb317d461b4a3d2c036e10b69d1]
link t1 to a1--><path d="M115.9,151.9094 C112.71,161.4794 109.02,172.5594 105.68,182.5594 " fill="none" id="t1-to-a1" style="stroke:#A80036;stroke-width:1.0;"/><polygon fill="#A80036" points="104.08,187.3694,110.7274,180.1021,105.6654,182.6274,103.1402,177.5655,104.08,187.3694" style="stroke:#A80036;stroke-width:1.0;"/><!--MD5=[3ee80e478b9fe6146813de6199f90310]
link a1 to ru1--><path d="M104.1,237.9094 C107.29,247.4794 110.98,258.5594 114.32,268.5594 " fill="none" id="a1-to-ru1" style="stroke:#A80036;stroke-width:1.0;"/><polygon fill="#A80036" points="115.92,273.3694,116.8598,263.5655,114.3346,268.6274,109.2726,266.1021,115.92,273.3694" style="stroke:#A80036;stroke-width:1.0;"/><!--MD5=[dc8ef6050e2bc12c8215bc27995b5663]
link ru1 to t1--><path d="M128.95,273.4894 C130.95,262.5894 133.02,249.4994 134,237.6094 C135.83,215.4594 135.83,209.7594 134,187.6094 C133.16,177.4794 131.54,166.4894 129.84,156.7194 " fill="none" id="ru1-to-t1" style="stroke:#A80036;stroke-width:1.0;"/><polygon fill="#A80036" points="128.95,151.7294,126.6098,161.2962,129.8369,156.6501,134.4829,159.8772,128.95,151.7294" style="stroke:#A80036;stroke-width:1.0;"/><!--MD5=[88c2f04fa7e7d97a26d0570573eaa3b9]
link ru1 to po1--><path d="M97.86,323.9094 C89.11,333.7394 79.65,345.1694 71.78,355.3794 " fill="none" id="ru1-to-po1" style="stroke:#A80036;stroke-width:1.0;"/><polygon fill="#A80036" points="68.73,359.3694,77.3682,354.6384,71.7619,355.3935,71.0068,349.7873,68.73,359.3694" style="stroke:#A80036;stroke-width:1.0;"/><!--MD5=[b23f7e28eb0eed2c402316c5581f46ca]
link po1 to ru1--><path d="M81.1,359.3694 C89.84,349.5394 99.3,338.1094 107.18,327.8994 " fill="none" id="po1-to-ru1" style="stroke:#A80036;stroke-width:1.0;"/><polygon fill="#A80036" points="110.23,323.9094,101.6,328.6553,107.2049,327.8905,107.9698,333.4954,110.23,323.9094" style="stroke:#A80036;stroke-width:1.0;"/><!--MD5=[869c7691b7af47cf9abd2e4c634b0f23]
link po1 to pa1--><path d="M48.24,409.9094 C47.37,419.3994 47.01,430.3594 47.23,440.2894 " fill="none" id="po1-to-pa1" style="stroke:#A80036;stroke-width:1.0;"/><polygon fill="#A80036" points="47.39,445.3694,51.0793,436.2376,47.2187,440.3723,43.084,436.5117,47.39,445.3694" style="stroke:#A80036;stroke-width:1.0;"/><!--MD5=[3a14e12c0dcb169a81174d46f508a05c]
link pa1 to po1--><path d="M59.76,445.3694 C60.63,435.8794 60.99,424.9194 60.77,414.9894 " fill="none" id="pa1-to-po1" style="stroke:#A80036;stroke-width:1.0;"/><polygon fill="#A80036" points="60.61,409.9094,56.8947,419.0306,60.7671,414.9069,64.8907,418.7793,60.61,409.9094" style="stroke:#A80036;stroke-width:1.0;"/><!--MD5=[f77957551af2ebcbb6ceef32d314a488]
link pa1 to re1--><path d="M73.54,495.9094 C81.85,505.7394 91.51,517.1694 100.13,527.3794 " fill="none" id="pa1-to-re1" style="stroke:#A80036;stroke-width:1.0;"/><polygon fill="#A80036" points="103.51,531.3694,100.7485,521.9156,100.2796,527.553,94.6423,527.0842,103.51,531.3694" style="stroke:#A80036;stroke-width:1.0;"/><!--MD5=[561dde269c249d7df45ba896451089a5]
link re1 to ru1--><path d="M128.15,531.3994 C131.5,484.1294 131.61,379.7194 128.48,328.7494 " fill="none" id="re1-to-ru1" style="stroke:#A80036;stroke-width:1.0;"/><polygon fill="#A80036" points="128.15,323.6894,124.7505,332.9329,128.4788,328.6786,132.7332,332.4069,128.15,323.6894" style="stroke:#A80036;stroke-width:1.0;"/><!--MD5=[281ae810d3a2ab6b4ef5e4a3cdfa2578]
link ru1 to re1--><path d="M119.85,323.6894 C116.5,370.8694 116.39,475.2694 119.51,526.3394 " fill="none" id="ru1-to-re1" style="stroke:#A80036;stroke-width:1.0;"/><polygon fill="#A80036" points="119.85,531.3994,123.2495,522.1558,119.5212,526.4102,115.2668,522.6819,119.85,531.3994" style="stroke:#A80036;stroke-width:1.0;"/><!--MD5=[6749e8d2026547a0c6724c84f62895a6]
link ru1 to w1--><path d="M134.17,323.9694 C147.07,354.8594 169.29,408.0394 183,440.8794 " fill="none" id="ru1-to-w1" style="stroke:#A80036;stroke-width:1.0;"/><polygon fill="#A80036" points="184.96,445.5694,185.18,435.723,183.0319,440.9561,177.7987,438.808,184.96,445.5694" style="stroke:#A80036;stroke-width:1.0;"/><!--MD5=[91e75d49cbe7067e2011ede3ae0767bf]
link w1 to re1--><path d="M174.46,495.9094 C166.15,505.7394 156.49,517.1694 147.87,527.3794 " fill="none" id="w1-to-re1" style="stroke:#A80036;stroke-width:1.0;"/><polygon fill="#A80036" points="144.49,531.3694,153.3577,527.0842,147.7204,527.553,147.2515,521.9156,144.49,531.3694" style="stroke:#A80036;stroke-width:1.0;"/><rect fill="#FEFECE" filter="url(#fde9q2fc2akir)" height="592.6094" rx="12.5" ry="12.5" style="stroke:#A80036;stroke-width:1.5;" width="237.5" x="279" y="7"/><rect fill="#FFFFFF" height="559" rx="12.5" ry="12.5" style="stroke:#FFFFFF;stroke-width:1.0;" width="231.5" x="282" y="37.6094"/><line style="stroke:#A80036;stroke-width:1.5;" x1="279" x2="516.5" y1="34.6094" y2="34.6094"/><text fill="#000000" font-family="sans-serif" font-size="14" lengthAdjust="spacing" textLength="47" x="374.25" y="26.5332">Task[2]</text><g id="Task2.t2"><rect fill="#FEFECE" filter="url(#fde9q2fc2akir)" height="50" rx="12.5" ry="12.5" style="stroke:#A80036;stroke-width:1.5;" width="92" x="350" y="101.6094"/><line style="stroke:#A80036;stroke-width:1.5;" x1="350" x2="442" y1="129.2188" y2="129.2188"/><text fill="#000000" font-family="sans-serif" font-size="14" lengthAdjust="spacing" textLength="72" x="360" y="121.1426">Terminated</text></g><g id="Task2.a2"><rect fill="#ADD8E6" filter="url(#fde9q2fc2akir)" height="50" rx="12.5" ry="12.5" style="stroke:#A80036;stroke-width:1.5;" width="58" x="339" y="187.6094"/><line style="stroke:#A80036;stroke-width:1.5;" x1="339" x2="397" y1="215.2188" y2="215.2188"/><text fill="#000000" font-family="sans-serif" font-size="14" lengthAdjust="spacing" textLength="38" x="349" y="207.1426">Active</text></g><g id="Task2.ru2"><rect fill="#FEFECE" filter="url(#fde9q2fc2akir)" height="50" rx="12.5" ry="12.5" style="stroke:#A80036;stroke-width:1.5;" width="73" x="359.5" y="273.6094"/><line style="stroke:#A80036;stroke-width:1.5;" x1="359.5" x2="432.5" y1="301.2188" y2="301.2188"/><text fill="#000000" font-family="sans-serif" font-size="14" lengthAdjust="spacing" textLength="53" x="369.5" y="293.1426">Running</text></g><g id="Task2.po2"><rect fill="#FEFECE" filter="url(#fde9q2fc2akir)" height="50" rx="12.5" ry="12.5" style="stroke:#A80036;stroke-width:1.5;" width="62" x="296" y="359.6094"/><line style="stroke:#A80036;stroke-width:1.5;" x1="296" x2="358" y1="387.2188" y2="387.2188"/><text fill="#000000" font-family="sans-serif" font-size="14" lengthAdjust="spacing" textLength="42" x="306" y="379.1426">Polling</text></g><g id="Task2.pa2"><rect fill="#FEFECE" filter="url(#fde9q2fc2akir)" height="50" rx="12.5" ry="12.5" style="stroke:#A80036;stroke-width:1.5;" width="68" x="291" y="445.6094"/><line style="stroke:#A80036;stroke-width:1.5;" x1="291" x2="359" y1="473.2188" y2="473.2188"/><text fill="#000000" font-family="sans-serif" font-size="14" lengthAdjust="spacing" textLength="48" x="301" y="465.1426">Parking</text></g><g id="Task2.re2"><rect fill="#FEFECE" filter="url(#fde9q2fc2akir)" height="50" rx="12.5" ry="12.5" style="stroke:#A80036;stroke-width:1.5;" width="61" x="365.5" y="531.6094"/><line style="stroke:#A80036;stroke-width:1.5;" x1="365.5" x2="426.5" y1="559.2188" y2="559.2188"/><text fill="#000000" font-family="sans-serif" font-size="14" lengthAdjust="spacing" textLength="41" x="375.5" y="551.1426">Ready</text></g><g id="Task2.w2"><rect fill="#FEFECE" filter="url(#fde9q2fc2akir)" height="50" rx="12.5" ry="12.5" style="stroke:#A80036;stroke-width:1.5;" width="67" x="433.5" y="445.6094"/><line style="stroke:#A80036;stroke-width:1.5;" x1="433.5" x2="500.5" y1="473.2188" y2="473.2188"/><text fill="#000000" font-family="sans-serif" font-size="14" lengthAdjust="spacing" textLength="47" x="443.5" y="465.1426">Waiting</text></g><ellipse cx="396" cy="55.6094" fill="#000000" filter="url(#fde9q2fc2akir)" rx="10" ry="10" style="stroke:none;stroke-width:1.0;"/><!--MD5=[97b29204851ae48b7db5919724085392]
link *start*Task2 to t2--><path d="M396,65.6294 C396,73.4894 396,85.3294 396,96.4194 " fill="none" id="*start*Task2-to-t2" style="stroke:#A80036;stroke-width:1.0;"/><polygon fill="#A80036" points="396,101.4394,400,92.4394,396,96.4394,392,92.4394,396,101.4394" style="stroke:#A80036;stroke-width:1.0;"/><!--MD5=[524908b4bcbf3336f657ca02052dc55d]
link t2 to a2--><path d="M387.9,151.9094 C384.71,161.4794 381.02,172.5594 377.68,182.5594 " fill="none" id="t2-to-a2" style="stroke:#A80036;stroke-width:1.0;"/><polygon fill="#A80036" points="376.08,187.3694,382.7274,180.1021,377.6654,182.6274,375.1402,177.5655,376.08,187.3694" style="stroke:#A80036;stroke-width:1.0;"/><!--MD5=[03138f24967a368e3a142dd3943b4628]
link a2 to ru2--><path d="M376.1,237.9094 C379.29,247.4794 382.98,258.5594 386.32,268.5594 " fill="none" id="a2-to-ru2" style="stroke:#A80036;stroke-width:1.0;"/><polygon fill="#A80036" points="387.92,273.3694,388.8598,263.5655,386.3346,268.6274,381.2726,266.1021,387.92,273.3694" style="stroke:#A80036;stroke-width:1.0;"/><!--MD5=[13ea6a069f8402fb49ebd38f7280012c]
link ru2 to t2--><path d="M400.95,273.4894 C402.95,262.5894 405.02,249.4994 406,237.6094 C407.83,215.4594 407.83,209.7594 406,187.6094 C405.16,177.4794 403.54,166.4894 401.84,156.7194 " fill="none" id="ru2-to-t2" style="stroke:#A80036;stroke-width:1.0;"/><polygon fill="#A80036" points="400.95,151.7294,398.6098,161.2962,401.8369,156.6501,406.4829,159.8772,400.95,151.7294" style="stroke:#A80036;stroke-width:1.0;"/><!--MD5=[2173ead5eaca4c929111205348c05705]
link ru2 to po2--><path d="M369.86,323.9094 C361.11,333.7394 351.65,345.1694 343.78,355.3794 " fill="none" id="ru2-to-po2" style="stroke:#A80036;stroke-width:1.0;"/><polygon fill="#A80036" points="340.73,359.3694,349.3682,354.6384,343.7619,355.3935,343.0068,349.7873,340.73,359.3694" style="stroke:#A80036;stroke-width:1.0;"/><!--MD5=[f50a8a7d582717468a81547b84da542f]
link po2 to ru2--><path d="M353.1,359.3694 C361.84,349.5394 371.3,338.1094 379.18,327.8994 " fill="none" id="po2-to-ru2" style="stroke:#A80036;stroke-width:1.0;"/><polygon fill="#A80036" points="382.23,323.9094,373.6,328.6553,379.2049,327.8905,379.9698,333.4954,382.23,323.9094" style="stroke:#A80036;stroke-width:1.0;"/><!--MD5=[602f31d7e85beba5db0d7883396e0d76]
link po2 to pa2--><path d="M320.24,409.9094 C319.37,419.3994 319.01,430.3594 319.23,440.2894 " fill="none" id="po2-to-pa2" style="stroke:#A80036;stroke-width:1.0;"/><polygon fill="#A80036" points="319.39,445.3694,323.0793,436.2376,319.2187,440.3723,315.084,436.5117,319.39,445.3694" style="stroke:#A80036;stroke-width:1.0;"/><!--MD5=[1ebaf424970cc8656d8fc9bc532a39a4]
link pa2 to po2--><path d="M331.76,445.3694 C332.63,435.8794 332.99,424.9194 332.77,414.9894 " fill="none" id="pa2-to-po2" style="stroke:#A80036;stroke-width:1.0;"/><polygon fill="#A80036" points="332.61,409.9094,328.8947,419.0306,332.7671,414.9069,336.8907,418.7793,332.61,409.9094" style="stroke:#A80036;stroke-width:1.0;"/><!--MD5=[bb2b793d4e8862740dd081971805e3ca]
link pa2 to re2--><path d="M345.54,495.9094 C353.85,505.7394 363.51,517.1694 372.13,527.3794 " fill="none" id="pa2-to-re2" style="stroke:#A80036;stroke-width:1.0;"/><polygon fill="#A80036" points="375.51,531.3694,372.7485,521.9156,372.2796,527.553,366.6423,527.0842,375.51,531.3694" style="stroke:#A80036;stroke-width:1.0;"/><!--MD5=[65ba95bfae392ba9384acf7a5fe00727]
link re2 to ru2--><path d="M400.15,531.3994 C403.5,484.1294 403.61,379.7194 400.48,328.7494 " fill="none" id="re2-to-ru2" style="stroke:#A80036;stroke-width:1.0;"/><polygon fill="#A80036" points="400.15,323.6894,396.7505,332.9329,400.4788,328.6786,404.7332,332.4069,400.15,323.6894" style="stroke:#A80036;stroke-width:1.0;"/><!--MD5=[1413a840a3f5ad330caa68a5e50df75e]
link ru2 to re2--><path d="M391.85,323.6894 C388.5,370.8694 388.39,475.2694 391.51,526.3394 " fill="none" id="ru2-to-re2" style="stroke:#A80036;stroke-width:1.0;"/><polygon fill="#A80036" points="391.85,531.3994,395.2495,522.1558,391.5212,526.4102,387.2668,522.6819,391.85,531.3994" style="stroke:#A80036;stroke-width:1.0;"/><!--MD5=[a245ec6f442b1849f52ee7259a016a6e]
link ru2 to w2--><path d="M406.17,323.9694 C419.07,354.8594 441.29,408.0394 455,440.8794 " fill="none" id="ru2-to-w2" style="stroke:#A80036;stroke-width:1.0;"/><polygon fill="#A80036" points="456.96,445.5694,457.18,435.723,455.0319,440.9561,449.7987,438.808,456.96,445.5694" style="stroke:#A80036;stroke-width:1.0;"/><!--MD5=[b4886407739ad1ea15890afd2fba79fa]
link w2 to re2--><path d="M446.46,495.9094 C438.15,505.7394 428.49,517.1694 419.87,527.3794 " fill="none" id="w2-to-re2" style="stroke:#A80036;stroke-width:1.0;"/><polygon fill="#A80036" points="416.49,531.3694,425.3577,527.0842,419.7204,527.553,419.2515,521.9156,416.49,531.3694" style="stroke:#A80036;stroke-width:1.0;"/><rect fill="#FEFECE" filter="url(#fde9q2fc2akir)" height="592.6094" rx="12.5" ry="12.5" style="stroke:#A80036;stroke-width:1.5;" width="237.5" x="551" y="7"/><rect fill="#FFFFFF" height="559" rx="12.5" ry="12.5" style="stroke:#FFFFFF;stroke-width:1.0;" width="231.5" x="554" y="37.6094"/><line style="stroke:#A80036;stroke-width:1.5;" x1="551" x2="788.5" y1="34.6094" y2="34.6094"/><text fill="#000000" font-family="sans-serif" font-size="14" lengthAdjust="spacing" textLength="47" x="646.25" y="26.5332">Task[3]</text><g id="Task3.t3"><rect fill="#ADD8E6" filter="url(#fde9q2fc2akir)" height="50" rx="12.5" ry="12.5" style="stroke:#A80036;stroke-width:1.5;" width="92" x="622" y="101.6094"/><line style="stroke:#A80036;stroke-width:1.5;" x1="622" x2="714" y1="129.2188" y2="129.2188"/><text fill="#000000" font-family="sans-serif" font-size="14" lengthAdjust="spacing" textLength="72" x="632" y="121.1426">Terminated</text></g><g id="Task3.a3"><rect fill="#FEFECE" filter="url(#fde9q2fc2akir)" height="50" rx="12.5" ry="12.5" style="stroke:#A80036;stroke-width:1.5;" width="58" x="611" y="187.6094"/><line style="stroke:#A80036;stroke-width:1.5;" x1="611" x2="669" y1="215.2188" y2="215.2188"/><text fill="#000000" font-family="sans-serif" font-size="14" lengthAdjust="spacing" textLength="38" x="621" y="207.1426">Active</text></g><g id="Task3.ru3"><rect fill="#FEFECE" filter="url(#fde9q2fc2akir)" height="50" rx="12.5" ry="12.5" style="stroke:#A80036;stroke-width:1.5;" width="73" x="631.5" y="273.6094"/><line style="stroke:#A80036;stroke-width:1.5;" x1="631.5" x2="704.5" y1="301.2188" y2="301.2188"/><text fill="#000000" font-family="sans-serif" font-size="14" lengthAdjust="spacing" textLength="53" x="641.5" y="293.1426">Running</text></g><g id="Task3.po3"><rect fill="#FEFECE" filter="url(#fde9q2fc2akir)" height="50" rx="12.5" ry="12.5" style="stroke:#A80036;stroke-width:1.5;" width="62" x="568" y="359.6094"/><line style="stroke:#A80036;stroke-width:1.5;" x1="568" x2="630" y1="387.2188" y2="387.2188"/><text fill="#000000" font-family="sans-serif" font-size="14" lengthAdjust="spacing" textLength="42" x="578" y="379.1426">Polling</text></g><g id="Task3.pa3"><rect fill="#FEFECE" filter="url(#fde9q2fc2akir)" height="50" rx="12.5" ry="12.5" style="stroke:#A80036;stroke-width:1.5;" width="68" x="563" y="445.6094"/><line style="stroke:#A80036;stroke-width:1.5;" x1="563" x2="631" y1="473.2188" y2="473.2188"/><text fill="#000000" font-family="sans-serif" font-size="14" lengthAdjust="spacing" textLength="48" x="573" y="465.1426">Parking</text></g><g id="Task3.re3"><rect fill="#FEFECE" filter="url(#fde9q2fc2akir)" height="50" rx="12.5" ry="12.5" style="stroke:#A80036;stroke-width:1.5;" width="61" x="637.5" y="531.6094"/><line style="stroke:#A80036;stroke-width:1.5;" x1="637.5" x2="698.5" y1="559.2188" y2="559.2188"/><text fill="#000000" font-family="sans-serif" font-size="14" lengthAdjust="spacing" textLength="41" x="647.5" y="551.1426">Ready</text></g><g id="Task3.w3"><rect fill="#FEFECE" filter="url(#fde9q2fc2akir)" height="50" rx="12.5" ry="12.5" style="stroke:#A80036;stroke-width:1.5;" width="67" x="705.5" y="445.6094"/><line style="stroke:#A80036;stroke-width:1.5;" x1="705.5" x2="772.5" y1="473.2188" y2="473.2188"/><text fill="#000000" font-family="sans-serif" font-size="14" lengthAdjust="spacing" textLength="47" x="715.5" y="465.1426">Waiting</text></g><ellipse cx="668" cy="55.6094" fill="#000000" filter="url(#fde9q2fc2akir)" rx="10" ry="10" style="stroke:none;stroke-width:1.0;"/><!--MD5=[a496c7c85b1c4e51883562d15d3d0045]
link *start*Task3 to t3--><path d="M668,65.6294 C668,73.4894 668,85.3294 668,96.4194 " fill="none" id="*start*Task3-to-t3" style="stroke:#A80036;stroke-width:1.0;"/><polygon fill="#A80036" points="668,101.4394,672,92.4394,668,96.4394,664,92.4394,668,101.4394" style="stroke:#A80036;stroke-width:1.0;"/><!--MD5=[93a4cf4c1129f6f7dbfb7bf08b675909]
link t3 to a3--><path d="M659.9,151.9094 C656.71,161.4794 653.02,172.5594 649.68,182.5594 " fill="none" id="t3-to-a3" style="stroke:#A80036;stroke-width:1.0;"/><polygon fill="#A80036" points="648.08,187.3694,654.7274,180.1021,649.6654,182.6274,647.1402,177.5655,648.08,187.3694" style="stroke:#A80036;stroke-width:1.0;"/><!--MD5=[fe7de521ace8af64925560f725c5bba0]
link a3 to ru3--><path d="M648.1,237.9094 C651.29,247.4794 654.98,258.5594 658.32,268.5594 " fill="none" id="a3-to-ru3" style="stroke:#A80036;stroke-width:1.0;"/><polygon fill="#A80036" points="659.92,273.3694,660.8598,263.5655,658.3346,268.6274,653.2726,266.1021,659.92,273.3694" style="stroke:#A80036;stroke-width:1.0;"/><!--MD5=[6c8c319f1b0e07d3a2ad33b593383b59]
link ru3 to t3--><path d="M672.95,273.4894 C674.95,262.5894 677.02,249.4994 678,237.6094 C679.83,215.4594 679.83,209.7594 678,187.6094 C677.16,177.4794 675.54,166.4894 673.84,156.7194 " fill="none" id="ru3-to-t3" style="stroke:#A80036;stroke-width:1.0;"/><polygon fill="#A80036" points="672.95,151.7294,670.6098,161.2962,673.8369,156.6501,678.4829,159.8772,672.95,151.7294" style="stroke:#A80036;stroke-width:1.0;"/><!--MD5=[cbe398deca270daa648d2ef73bfe82ac]
link ru3 to po3--><path d="M641.86,323.9094 C633.11,333.7394 623.65,345.1694 615.78,355.3794 " fill="none" id="ru3-to-po3" style="stroke:#A80036;stroke-width:1.0;"/><polygon fill="#A80036" points="612.73,359.3694,621.3682,354.6384,615.7619,355.3935,615.0068,349.7873,612.73,359.3694" style="stroke:#A80036;stroke-width:1.0;"/><!--MD5=[e46b189124ff98db7ced2b596c61c8d9]
link po3 to ru3--><path d="M625.1,359.3694 C633.84,349.5394 643.3,338.1094 651.18,327.8994 " fill="none" id="po3-to-ru3" style="stroke:#A80036;stroke-width:1.0;"/><polygon fill="#A80036" points="654.23,323.9094,645.6,328.6553,651.2049,327.8905,651.9698,333.4954,654.23,323.9094" style="stroke:#A80036;stroke-width:1.0;"/><!--MD5=[62a9d7db41db047867fdb5b4efda9805]
link po3 to pa3--><path d="M592.24,409.9094 C591.37,419.3994 591.01,430.3594 591.23,440.2894 " fill="none" id="po3-to-pa3" style="stroke:#A80036;stroke-width:1.0;"/><polygon fill="#A80036" points="591.39,445.3694,595.0793,436.2376,591.2187,440.3723,587.084,436.5117,591.39,445.3694" style="stroke:#A80036;stroke-width:1.0;"/><!--MD5=[d0c42cf52c40b3c8ecdc71c758642c52]
link pa3 to po3--><path d="M603.76,445.3694 C604.63,435.8794 604.99,424.9194 604.77,414.9894 " fill="none" id="pa3-to-po3" style="stroke:#A80036;stroke-width:1.0;"/><polygon fill="#A80036" points="604.61,409.9094,600.8947,419.0306,604.7671,414.9069,608.8907,418.7793,604.61,409.9094" style="stroke:#A80036;stroke-width:1.0;"/><!--MD5=[4d8dbfb39049faaf9b12f2d494560073]
link pa3 to re3--><path d="M617.54,495.9094 C625.85,505.7394 635.51,517.1694 644.13,527.3794 " fill="none" id="pa3-to-re3" style="stroke:#A80036;stroke-width:1.0;"/><polygon fill="#A80036" points="647.51,531.3694,644.7485,521.9156,644.2796,527.553,638.6423,527.0842,647.51,531.3694" style="stroke:#A80036;stroke-width:1.0;"/><!--MD5=[7f3cdc4818bb176b389aac882c3678e2]
link re3 to ru3--><path d="M672.15,531.3994 C675.5,484.1294 675.61,379.7194 672.48,328.7494 " fill="none" id="re3-to-ru3" style="stroke:#A80036;stroke-width:1.0;"/><polygon fill="#A80036" points="672.15,323.6894,668.7505,332.9329,672.4788,328.6786,676.7332,332.4069,672.15,323.6894" style="stroke:#A80036;stroke-width:1.0;"/><!--MD5=[248e0e274d585b255842503dee15f2c3]
link ru3 to re3--><path d="M663.85,323.6894 C660.5,370.8694 660.39,475.2694 663.51,526.3394 " fill="none" id="ru3-to-re3" style="stroke:#A80036;stroke-width:1.0;"/><polygon fill="#A80036" points="663.85,531.3994,667.2495,522.1558,663.5212,526.4102,659.2668,522.6819,663.85,531.3994" style="stroke:#A80036;stroke-width:1.0;"/><!--MD5=[294cd945e9b7fe6b8cc1eb7fab3435cc]
link ru3 to w3--><path d="M678.17,323.9694 C691.07,354.8594 713.29,408.0394 727,440.8794 " fill="none" id="ru3-to-w3" style="stroke:#A80036;stroke-width:1.0;"/><polygon fill="#A80036" points="728.96,445.5694,729.18,435.723,727.0319,440.9561,721.7987,438.808,728.96,445.5694" style="stroke:#A80036;stroke-width:1.0;"/><!--MD5=[2d30bfde5d34abf8f30647edfdad4846]
link w3 to re3--><path d="M718.46,495.9094 C710.15,505.7394 700.49,517.1694 691.87,527.3794 " fill="none" id="w3-to-re3" style="stroke:#A80036;stroke-width:1.0;"/><polygon fill="#A80036" points="688.49,531.3694,697.3577,527.0842,691.7204,527.553,691.2515,521.9156,688.49,531.3694" style="stroke:#A80036;stroke-width:1.0;"/><!--MD5=[a971b3127b958f534ec8309862e81c7a]
@startuml mta3example4
state "Task[1]" as Task1 {
    state "Terminated" as t1
    state "Active" as a1
    state "Running" as ru1 #LightBlue
    state "Polling" as po1
    state "Parking" as pa1
    state "Ready" as re1
    state "Waiting" as w1
    [*] - -> t1
    t1 - -> a1
    a1 - -> ru1
    ru1 - -> t1
    ru1 - -> po1
    po1 - -> ru1
    po1 - -> pa1
    pa1 - -> po1
    pa1 - -> re1
    re1 - -> ru1
    ru1 - -> re1
    ru1 - -> w1
    w1 - -> re1
}
state "Task[2]" as Task2 {
    state "Terminated" as t2
    state "Active" as a2 #LightBlue
    state "Running" as ru2
    state "Polling" as po2
    state "Parking" as pa2
    state "Ready" as re2
    state "Waiting" as w2
    [*] - -> t2
    t2 - -> a2
    a2 - -> ru2
    ru2 - -> t2
    ru2 - -> po2
    po2 - -> ru2
    po2 - -> pa2
    pa2 - -> po2
    pa2 - -> re2
    re2 - -> ru2
    ru2 - -> re2
    ru2 - -> w2
    w2 - -> re2
}
state "Task[3]" as Task3 {
    state "Terminated" as t3 #LightBlue
    state "Active" as a3
    state "Running" as ru3
    state "Polling" as po3
    state "Parking" as pa3
    state "Ready" as re3
    state "Waiting" as w3
    [*] - -> t3
    t3 - -> a3
    a3 - -> ru3
    ru3 - -> t3
    ru3 - -> po3
    po3 - -> ru3
    po3 - -> pa3
    pa3 - -> po3
    pa3 - -> re3
    re3 - -> ru3
    ru3 - -> re3
    ru3 - -> w3
    w3 - -> re3
}
@enduml

PlantUML version 1.2021.00(Sun Jan 10 11:25:05 CET 2021)
(MIT source distribution)
Java Runtime: OpenJDK Runtime Environment
JVM: OpenJDK 64-Bit Server VM
Default Encoding: Cp1252
Language: de
Country: DE
--></g></svg>